%YAML 1.1
%TAG !u! tag:unity3d.com,2011:
--- !u!95 &8336559812494236631
Animator:
  serializedVersion: 3
  m_ObjectHideFlags: 0
  m_CorrespondingSourceObject: {fileID: 0}
  m_PrefabInstance: {fileID: 0}
  m_PrefabAsset: {fileID: 0}
  m_GameObject: {fileID: 5688952623994071755}
  m_Enabled: 1
  m_Avatar: {fileID: 0}
  m_Controller: {fileID: 9100000, guid: a648c8ec190372241b8f1ddc39a69afa, type: 2}
  m_CullingMode: 0
  m_UpdateMode: 0
  m_ApplyRootMotion: 0
  m_LinearVelocityBlending: 0
  m_WarningMessage: 
  m_HasTransformHierarchy: 1
  m_AllowConstantClipSamplingOptimization: 1
  m_KeepAnimatorControllerStateOnDisable: 0
--- !u!114 &5712606180835822497
MonoBehaviour:
  m_ObjectHideFlags: 0
  m_CorrespondingSourceObject: {fileID: 0}
  m_PrefabInstance: {fileID: 0}
  m_PrefabAsset: {fileID: 0}
  m_GameObject: {fileID: 5688952623994071755}
  m_Enabled: 1
  m_EditorHideFlags: 0
  m_Script: {fileID: 11500000, guid: 46c7694e292cddc4580f53bfd9066ada, type: 3}
  m_Name: 
  m_EditorClassIdentifier: 
  tags:
  - Patient2InjuryUI
--- !u!1001 &4808415162050708786
PrefabInstance:
  m_ObjectHideFlags: 0
  serializedVersion: 2
  m_Modification:
    m_TransformParent: {fileID: 0}
    m_Modifications:
    - target: {fileID: 371968397741240290, guid: 5f6e146d62259284595352405d517636, type: 3}
      propertyPath: patientInfo
      value: 
      objectReference: {fileID: 11400000, guid: b89d3d86978731a40a2c7bbe08f3aad4, type: 2}
    - target: {fileID: 387145727731249204, guid: 5f6e146d62259284595352405d517636, type: 3}
      propertyPath: m_LocalRotation.x
      value: 0.00000022349887
      objectReference: {fileID: 0}
    - target: {fileID: 387145727731249204, guid: 5f6e146d62259284595352405d517636, type: 3}
      propertyPath: m_LocalRotation.y
      value: -0.7071068
      objectReference: {fileID: 0}
    - target: {fileID: 387145727731249204, guid: 5f6e146d62259284595352405d517636, type: 3}
      propertyPath: m_LocalRotation.z
      value: -0.7071068
      objectReference: {fileID: 0}
    - target: {fileID: 387145727731249204, guid: 5f6e146d62259284595352405d517636, type: 3}
      propertyPath: m_LocalRotation.w
      value: 0.00000024734422
      objectReference: {fileID: 0}
    - target: {fileID: 387145727731249204, guid: 5f6e146d62259284595352405d517636, type: 3}
      propertyPath: m_LocalPosition.x
      value: -0.2699995
      objectReference: {fileID: 0}
    - target: {fileID: 387145727731249204, guid: 5f6e146d62259284595352405d517636, type: 3}
      propertyPath: m_LocalPosition.y
      value: 1.4499997
      objectReference: {fileID: 0}
    - target: {fileID: 387145727731249204, guid: 5f6e146d62259284595352405d517636, type: 3}
      propertyPath: m_LocalPosition.z
      value: -7.7699995
      objectReference: {fileID: 0}
    - target: {fileID: 387145727731249204, guid: 5f6e146d62259284595352405d517636, type: 3}
      propertyPath: m_LocalEulerAnglesHint.x
      value: -90
      objectReference: {fileID: 0}
    - target: {fileID: 387145727731249204, guid: 5f6e146d62259284595352405d517636, type: 3}
      propertyPath: m_LocalEulerAnglesHint.y
      value: 0
      objectReference: {fileID: 0}
    - target: {fileID: 387145727731249204, guid: 5f6e146d62259284595352405d517636, type: 3}
      propertyPath: m_LocalEulerAnglesHint.z
      value: -180
      objectReference: {fileID: 0}
    - target: {fileID: 504971556672484675, guid: 5f6e146d62259284595352405d517636, type: 3}
      propertyPath: m_LocalPosition.x
      value: 14.131
      objectReference: {fileID: 0}
    - target: {fileID: 504971556672484675, guid: 5f6e146d62259284595352405d517636, type: 3}
      propertyPath: m_LocalPosition.y
      value: -2.763
      objectReference: {fileID: 0}
    - target: {fileID: 504971556672484675, guid: 5f6e146d62259284595352405d517636, type: 3}
      propertyPath: m_LocalPosition.z
      value: 8.1335
      objectReference: {fileID: 0}
    - target: {fileID: 504971556672484675, guid: 5f6e146d62259284595352405d517636, type: 3}
      propertyPath: m_LocalRotation.x
      value: 0
      objectReference: {fileID: 0}
    - target: {fileID: 504971556672484675, guid: 5f6e146d62259284595352405d517636, type: 3}
      propertyPath: m_LocalRotation.y
      value: 0
      objectReference: {fileID: 0}
    - target: {fileID: 504971556672484675, guid: 5f6e146d62259284595352405d517636, type: 3}
      propertyPath: m_LocalRotation.z
      value: 0
      objectReference: {fileID: 0}
    - target: {fileID: 504971556672484675, guid: 5f6e146d62259284595352405d517636, type: 3}
      propertyPath: m_LocalRotation.w
      value: 1
      objectReference: {fileID: 0}
    - target: {fileID: 504971556672484675, guid: 5f6e146d62259284595352405d517636, type: 3}
      propertyPath: m_RootOrder
      value: 0
      objectReference: {fileID: 0}
    - target: {fileID: 504971556672484675, guid: 5f6e146d62259284595352405d517636, type: 3}
      propertyPath: m_LocalEulerAnglesHint.x
      value: 0
      objectReference: {fileID: 0}
    - target: {fileID: 504971556672484675, guid: 5f6e146d62259284595352405d517636, type: 3}
      propertyPath: m_LocalEulerAnglesHint.y
      value: 0
      objectReference: {fileID: 0}
    - target: {fileID: 504971556672484675, guid: 5f6e146d62259284595352405d517636, type: 3}
      propertyPath: m_LocalEulerAnglesHint.z
      value: 0
      objectReference: {fileID: 0}
    - target: {fileID: 504971556672484675, guid: 5f6e146d62259284595352405d517636, type: 3}
      propertyPath: m_LocalScale.x
      value: 0.33324194
      objectReference: {fileID: 0}
    - target: {fileID: 504971556672484675, guid: 5f6e146d62259284595352405d517636, type: 3}
      propertyPath: m_LocalScale.y
      value: 0.33324194
      objectReference: {fileID: 0}
    - target: {fileID: 504971556672484675, guid: 5f6e146d62259284595352405d517636, type: 3}
      propertyPath: m_LocalScale.z
      value: 0.33324194
      objectReference: {fileID: 0}
    - target: {fileID: 885472276371468281, guid: 5f6e146d62259284595352405d517636, type: 3}
      propertyPath: m_Name
      value: Patient 2 Variant
      objectReference: {fileID: 0}
    - target: {fileID: 2115607250047038017, guid: 5f6e146d62259284595352405d517636, type: 3}
      propertyPath: m_LocalRotation.x
      value: 0.70710707
      objectReference: {fileID: 0}
    - target: {fileID: 2115607250047038017, guid: 5f6e146d62259284595352405d517636, type: 3}
      propertyPath: m_LocalRotation.y
      value: 0.00000026969596
      objectReference: {fileID: 0}
    - target: {fileID: 2115607250047038017, guid: 5f6e146d62259284595352405d517636, type: 3}
      propertyPath: m_LocalRotation.z
      value: 0.000000327807
      objectReference: {fileID: 0}
    - target: {fileID: 2115607250047038017, guid: 5f6e146d62259284595352405d517636, type: 3}
      propertyPath: m_LocalRotation.w
      value: 0.70710653
      objectReference: {fileID: 0}
    - target: {fileID: 2115607250047038017, guid: 5f6e146d62259284595352405d517636, type: 3}
      propertyPath: m_LocalPosition.x
      value: 1.8700695
      objectReference: {fileID: 0}
    - target: {fileID: 2115607250047038017, guid: 5f6e146d62259284595352405d517636, type: 3}
      propertyPath: m_LocalPosition.y
      value: 5.9635477
      objectReference: {fileID: 0}
    - target: {fileID: 2115607250047038017, guid: 5f6e146d62259284595352405d517636, type: 3}
      propertyPath: m_LocalPosition.z
      value: 1.0454369
      objectReference: {fileID: 0}
    - target: {fileID: 2115607250047038017, guid: 5f6e146d62259284595352405d517636, type: 3}
      propertyPath: m_LocalEulerAnglesHint.y
      value: 0
      objectReference: {fileID: 0}
    - target: {fileID: 2115607250047038017, guid: 5f6e146d62259284595352405d517636, type: 3}
      propertyPath: m_LocalEulerAnglesHint.x
      value: 90
      objectReference: {fileID: 0}
    - target: {fileID: 2115607250047038017, guid: 5f6e146d62259284595352405d517636, type: 3}
      propertyPath: m_LocalEulerAnglesHint.z
      value: 0
      objectReference: {fileID: 0}
    - target: {fileID: 2819645840980441862, guid: 5f6e146d62259284595352405d517636, type: 3}
      propertyPath: m_LocalRotation.x
      value: 0.20984015
      objectReference: {fileID: 0}
    - target: {fileID: 2819645840980441862, guid: 5f6e146d62259284595352405d517636, type: 3}
      propertyPath: m_LocalRotation.y
      value: -0.47074598
      objectReference: {fileID: 0}
    - target: {fileID: 2819645840980441862, guid: 5f6e146d62259284595352405d517636, type: 3}
      propertyPath: m_LocalRotation.z
      value: 0.11170753
      objectReference: {fileID: 0}
    - target: {fileID: 2819645840980441862, guid: 5f6e146d62259284595352405d517636, type: 3}
      propertyPath: m_LocalRotation.w
      value: 0.8496392
      objectReference: {fileID: 0}
    - target: {fileID: 2819645840980441862, guid: 5f6e146d62259284595352405d517636, type: 3}
      propertyPath: m_LocalEulerAnglesHint.y
      value: -58.1
      objectReference: {fileID: 0}
    - target: {fileID: 2819645840980441862, guid: 5f6e146d62259284595352405d517636, type: 3}
      propertyPath: m_LocalPosition.x
      value: 2.3
      objectReference: {fileID: 0}
    - target: {fileID: 2819645840980441862, guid: 5f6e146d62259284595352405d517636, type: 3}
      propertyPath: m_LocalPosition.y
      value: 3.15
      objectReference: {fileID: 0}
    - target: {fileID: 2819645840980441862, guid: 5f6e146d62259284595352405d517636, type: 3}
      propertyPath: m_LocalEulerAnglesHint.x
      value: 27.5
      objectReference: {fileID: 0}
    - target: {fileID: 2819645840980441862, guid: 5f6e146d62259284595352405d517636, type: 3}
      propertyPath: m_LocalEulerAnglesHint.z
      value: -0.5
      objectReference: {fileID: 0}
    - target: {fileID: 2819645840980441862, guid: 5f6e146d62259284595352405d517636, type: 3}
      propertyPath: m_LocalPosition.z
      value: 4.72
      objectReference: {fileID: 0}
    - target: {fileID: 3125796403226720604, guid: 5f6e146d62259284595352405d517636, type: 3}
      propertyPath: m_Enabled
      value: 0
      objectReference: {fileID: 0}
    - target: {fileID: 3221168547880180611, guid: 5f6e146d62259284595352405d517636, type: 3}
      propertyPath: m_LocalRotation.x
      value: 0.098755516
      objectReference: {fileID: 0}
    - target: {fileID: 3221168547880180611, guid: 5f6e146d62259284595352405d517636, type: 3}
      propertyPath: m_LocalRotation.y
      value: -0.7995355
      objectReference: {fileID: 0}
    - target: {fileID: 3221168547880180611, guid: 5f6e146d62259284595352405d517636, type: 3}
      propertyPath: m_LocalRotation.z
      value: 0.33442172
      objectReference: {fileID: 0}
    - target: {fileID: 3221168547880180611, guid: 5f6e146d62259284595352405d517636, type: 3}
      propertyPath: m_LocalRotation.w
      value: 0.4890322
      objectReference: {fileID: 0}
    - target: {fileID: 3221168547880180611, guid: 5f6e146d62259284595352405d517636, type: 3}
      propertyPath: m_LocalPosition.x
      value: 5.72
      objectReference: {fileID: 0}
    - target: {fileID: 3221168547880180611, guid: 5f6e146d62259284595352405d517636, type: 3}
      propertyPath: m_LocalPosition.y
      value: 5.77
      objectReference: {fileID: 0}
    - target: {fileID: 3221168547880180611, guid: 5f6e146d62259284595352405d517636, type: 3}
      propertyPath: m_LocalPosition.z
      value: 4.88
      objectReference: {fileID: 0}
    - target: {fileID: 3221168547880180611, guid: 5f6e146d62259284595352405d517636, type: 3}
      propertyPath: m_LocalEulerAnglesHint.x
      value: -320.85
      objectReference: {fileID: 0}
    - target: {fileID: 3221168547880180611, guid: 5f6e146d62259284595352405d517636, type: 3}
      propertyPath: m_LocalEulerAnglesHint.z
      value: 372.6
      objectReference: {fileID: 0}
    - target: {fileID: 3221168547880180611, guid: 5f6e146d62259284595352405d517636, type: 3}
      propertyPath: m_LocalEulerAnglesHint.y
      value: -112.6
      objectReference: {fileID: 0}
    - target: {fileID: 3369274965951979274, guid: 5f6e146d62259284595352405d517636, type: 3}
      propertyPath: m_LocalRotation.x
      value: 0.00000022349887
      objectReference: {fileID: 0}
    - target: {fileID: 3369274965951979274, guid: 5f6e146d62259284595352405d517636, type: 3}
      propertyPath: m_LocalRotation.y
      value: -0.7071068
      objectReference: {fileID: 0}
    - target: {fileID: 3369274965951979274, guid: 5f6e146d62259284595352405d517636, type: 3}
      propertyPath: m_LocalRotation.z
      value: -0.7071068
      objectReference: {fileID: 0}
    - target: {fileID: 3369274965951979274, guid: 5f6e146d62259284595352405d517636, type: 3}
      propertyPath: m_LocalRotation.w
      value: 0.00000024734422
      objectReference: {fileID: 0}
    - target: {fileID: 3369274965951979274, guid: 5f6e146d62259284595352405d517636, type: 3}
      propertyPath: m_LocalPosition.x
      value: -0.2699995
      objectReference: {fileID: 0}
    - target: {fileID: 3369274965951979274, guid: 5f6e146d62259284595352405d517636, type: 3}
      propertyPath: m_LocalPosition.y
      value: 1.4499997
      objectReference: {fileID: 0}
    - target: {fileID: 3369274965951979274, guid: 5f6e146d62259284595352405d517636, type: 3}
      propertyPath: m_LocalPosition.z
      value: -7.7699995
      objectReference: {fileID: 0}
    - target: {fileID: 3369274965951979274, guid: 5f6e146d62259284595352405d517636, type: 3}
      propertyPath: m_LocalEulerAnglesHint.x
      value: -90
      objectReference: {fileID: 0}
    - target: {fileID: 3369274965951979274, guid: 5f6e146d62259284595352405d517636, type: 3}
      propertyPath: m_LocalEulerAnglesHint.y
      value: 0
      objectReference: {fileID: 0}
    - target: {fileID: 3369274965951979274, guid: 5f6e146d62259284595352405d517636, type: 3}
      propertyPath: m_LocalEulerAnglesHint.z
      value: -180
      objectReference: {fileID: 0}
    - target: {fileID: 3543634519179146598, guid: 5f6e146d62259284595352405d517636, type: 3}
      propertyPath: m_LocalRotation.x
      value: 0.00000022349887
      objectReference: {fileID: 0}
    - target: {fileID: 3543634519179146598, guid: 5f6e146d62259284595352405d517636, type: 3}
      propertyPath: m_LocalRotation.y
      value: -0.7071068
      objectReference: {fileID: 0}
    - target: {fileID: 3543634519179146598, guid: 5f6e146d62259284595352405d517636, type: 3}
      propertyPath: m_LocalRotation.z
      value: -0.7071068
      objectReference: {fileID: 0}
    - target: {fileID: 3543634519179146598, guid: 5f6e146d62259284595352405d517636, type: 3}
      propertyPath: m_LocalRotation.w
      value: 0.00000024734422
      objectReference: {fileID: 0}
    - target: {fileID: 3543634519179146598, guid: 5f6e146d62259284595352405d517636, type: 3}
      propertyPath: m_LocalPosition.x
      value: -0.2699995
      objectReference: {fileID: 0}
    - target: {fileID: 3543634519179146598, guid: 5f6e146d62259284595352405d517636, type: 3}
      propertyPath: m_LocalPosition.y
      value: 1.4499997
      objectReference: {fileID: 0}
    - target: {fileID: 3543634519179146598, guid: 5f6e146d62259284595352405d517636, type: 3}
      propertyPath: m_LocalPosition.z
      value: -7.7699995
      objectReference: {fileID: 0}
    - target: {fileID: 3543634519179146598, guid: 5f6e146d62259284595352405d517636, type: 3}
      propertyPath: m_LocalEulerAnglesHint.x
      value: -90
      objectReference: {fileID: 0}
    - target: {fileID: 3543634519179146598, guid: 5f6e146d62259284595352405d517636, type: 3}
      propertyPath: m_LocalEulerAnglesHint.y
      value: 0
      objectReference: {fileID: 0}
    - target: {fileID: 3543634519179146598, guid: 5f6e146d62259284595352405d517636, type: 3}
      propertyPath: m_LocalEulerAnglesHint.z
      value: -180
      objectReference: {fileID: 0}
    - target: {fileID: 3614192023709069056, guid: 5f6e146d62259284595352405d517636, type: 3}
      propertyPath: m_Size.x
      value: 6.69352
      objectReference: {fileID: 0}
    - target: {fileID: 3614192023709069056, guid: 5f6e146d62259284595352405d517636, type: 3}
      propertyPath: m_Size.y
      value: 7.8576355
      objectReference: {fileID: 0}
    - target: {fileID: 3614192023709069056, guid: 5f6e146d62259284595352405d517636, type: 3}
      propertyPath: m_Center.x
      value: -0.11619806
      objectReference: {fileID: 0}
    - target: {fileID: 3614192023709069056, guid: 5f6e146d62259284595352405d517636, type: 3}
      propertyPath: m_Center.y
      value: 3.234773
      objectReference: {fileID: 0}
    - target: {fileID: 3614192023709069056, guid: 5f6e146d62259284595352405d517636, type: 3}
      propertyPath: m_Center.z
      value: -0.58096826
      objectReference: {fileID: 0}
    - target: {fileID: 3953566820722190548, guid: 5f6e146d62259284595352405d517636, type: 3}
      propertyPath: m_Enabled
      value: 0
      objectReference: {fileID: 0}
    - target: {fileID: 4195899556965511662, guid: 5f6e146d62259284595352405d517636, type: 3}
      propertyPath: m_LocalRotation.x
      value: 0.659182
      objectReference: {fileID: 0}
    - target: {fileID: 4195899556965511662, guid: 5f6e146d62259284595352405d517636, type: 3}
      propertyPath: m_LocalRotation.y
      value: 0.00000019670233
      objectReference: {fileID: 0}
    - target: {fileID: 4195899556965511662, guid: 5f6e146d62259284595352405d517636, type: 3}
      propertyPath: m_LocalRotation.z
      value: 0.00000040231404
      objectReference: {fileID: 0}
    - target: {fileID: 4195899556965511662, guid: 5f6e146d62259284595352405d517636, type: 3}
      propertyPath: m_LocalRotation.w
      value: 0.7519834
      objectReference: {fileID: 0}
    - target: {fileID: 4195899556965511662, guid: 5f6e146d62259284595352405d517636, type: 3}
      propertyPath: m_LocalEulerAnglesHint.y
      value: 0
      objectReference: {fileID: 0}
    - target: {fileID: 4195899556965511662, guid: 5f6e146d62259284595352405d517636, type: 3}
      propertyPath: m_LocalPosition.x
      value: 2.0300722
      objectReference: {fileID: 0}
    - target: {fileID: 4195899556965511662, guid: 5f6e146d62259284595352405d517636, type: 3}
      propertyPath: m_LocalPosition.y
      value: 5.913553
      objectReference: {fileID: 0}
    - target: {fileID: 4195899556965511662, guid: 5f6e146d62259284595352405d517636, type: 3}
      propertyPath: m_LocalEulerAnglesHint.x
      value: 82.475
      objectReference: {fileID: 0}
    - target: {fileID: 4195899556965511662, guid: 5f6e146d62259284595352405d517636, type: 3}
      propertyPath: m_LocalEulerAnglesHint.z
      value: 0
      objectReference: {fileID: 0}
    - target: {fileID: 4195899556965511662, guid: 5f6e146d62259284595352405d517636, type: 3}
      propertyPath: m_LocalPosition.z
      value: -5.694562
      objectReference: {fileID: 0}
    - target: {fileID: 4481276602700205878, guid: 5f6e146d62259284595352405d517636, type: 3}
      propertyPath: m_Materials.Array.data[0]
      value: 
      objectReference: {fileID: 2100000, guid: 93ad0d8d58c5ffa4dadd5555d0151f4b, type: 2}
    - target: {fileID: 5198057370576836172, guid: 5f6e146d62259284595352405d517636, type: 3}
      propertyPath: m_IsActive
      value: 0
      objectReference: {fileID: 0}
    - target: {fileID: 7288880394951957472, guid: 5f6e146d62259284595352405d517636, type: 3}
      propertyPath: m_IsActive
      value: 0
      objectReference: {fileID: 0}
    - target: {fileID: 7429907775994950221, guid: 5f6e146d62259284595352405d517636, type: 3}
      propertyPath: m_Enabled
      value: 0
      objectReference: {fileID: 0}
    - target: {fileID: 7935628036659758563, guid: 5f6e146d62259284595352405d517636, type: 3}
      propertyPath: m_LocalRotation.x
      value: 0.00000022349887
      objectReference: {fileID: 0}
    - target: {fileID: 7935628036659758563, guid: 5f6e146d62259284595352405d517636, type: 3}
      propertyPath: m_LocalRotation.y
      value: -0.7071068
      objectReference: {fileID: 0}
    - target: {fileID: 7935628036659758563, guid: 5f6e146d62259284595352405d517636, type: 3}
      propertyPath: m_LocalRotation.z
      value: -0.7071068
      objectReference: {fileID: 0}
    - target: {fileID: 7935628036659758563, guid: 5f6e146d62259284595352405d517636, type: 3}
      propertyPath: m_LocalRotation.w
      value: 0.00000024734422
      objectReference: {fileID: 0}
    - target: {fileID: 7935628036659758563, guid: 5f6e146d62259284595352405d517636, type: 3}
      propertyPath: m_LocalPosition.x
      value: -0.27
      objectReference: {fileID: 0}
    - target: {fileID: 7935628036659758563, guid: 5f6e146d62259284595352405d517636, type: 3}
      propertyPath: m_LocalPosition.y
      value: 1.45
      objectReference: {fileID: 0}
    - target: {fileID: 7935628036659758563, guid: 5f6e146d62259284595352405d517636, type: 3}
      propertyPath: m_LocalPosition.z
      value: -7.7699986
      objectReference: {fileID: 0}
    - target: {fileID: 7935628036659758563, guid: 5f6e146d62259284595352405d517636, type: 3}
      propertyPath: m_LocalEulerAnglesHint.x
      value: -90
      objectReference: {fileID: 0}
    - target: {fileID: 7935628036659758563, guid: 5f6e146d62259284595352405d517636, type: 3}
      propertyPath: m_LocalEulerAnglesHint.y
      value: 0
      objectReference: {fileID: 0}
    - target: {fileID: 7935628036659758563, guid: 5f6e146d62259284595352405d517636, type: 3}
      propertyPath: m_LocalEulerAnglesHint.z
      value: -180
      objectReference: {fileID: 0}
    - target: {fileID: 8751216105478072453, guid: 5f6e146d62259284595352405d517636, type: 3}
      propertyPath: m_RootOrder
      value: 10
      objectReference: {fileID: 0}
    - target: {fileID: 8751216105478072453, guid: 5f6e146d62259284595352405d517636, type: 3}
      propertyPath: m_LocalRotation.x
      value: 0.00000022349887
      objectReference: {fileID: 0}
    - target: {fileID: 8751216105478072453, guid: 5f6e146d62259284595352405d517636, type: 3}
      propertyPath: m_LocalRotation.y
      value: -0.7071068
      objectReference: {fileID: 0}
    - target: {fileID: 8751216105478072453, guid: 5f6e146d62259284595352405d517636, type: 3}
      propertyPath: m_LocalRotation.z
      value: -0.7071068
      objectReference: {fileID: 0}
    - target: {fileID: 8751216105478072453, guid: 5f6e146d62259284595352405d517636, type: 3}
      propertyPath: m_LocalRotation.w
      value: 0.00000024734422
      objectReference: {fileID: 0}
    - target: {fileID: 8751216105478072453, guid: 5f6e146d62259284595352405d517636, type: 3}
      propertyPath: m_LocalPosition.x
      value: -0.2699995
      objectReference: {fileID: 0}
    - target: {fileID: 8751216105478072453, guid: 5f6e146d62259284595352405d517636, type: 3}
      propertyPath: m_LocalPosition.y
      value: 1.45
      objectReference: {fileID: 0}
    - target: {fileID: 8751216105478072453, guid: 5f6e146d62259284595352405d517636, type: 3}
      propertyPath: m_LocalPosition.z
      value: -7.77
      objectReference: {fileID: 0}
    - target: {fileID: 8751216105478072453, guid: 5f6e146d62259284595352405d517636, type: 3}
      propertyPath: m_LocalEulerAnglesHint.x
      value: -90
      objectReference: {fileID: 0}
    - target: {fileID: 8751216105478072453, guid: 5f6e146d62259284595352405d517636, type: 3}
      propertyPath: m_LocalEulerAnglesHint.y
      value: 0
      objectReference: {fileID: 0}
    - target: {fileID: 8751216105478072453, guid: 5f6e146d62259284595352405d517636, type: 3}
      propertyPath: m_LocalEulerAnglesHint.z
      value: -180
      objectReference: {fileID: 0}
    - target: {fileID: 8754133059893879003, guid: 5f6e146d62259284595352405d517636, type: 3}
      propertyPath: m_Materials.Array.data[0]
      value: 
      objectReference: {fileID: 2100000, guid: 3cb69027d55d9c5418edf078b6437049, type: 2}
    - target: {fileID: 8998670272088347476, guid: 5f6e146d62259284595352405d517636, type: 3}
      propertyPath: m_LocalRotation.x
      value: 0.00000022349887
      objectReference: {fileID: 0}
    - target: {fileID: 8998670272088347476, guid: 5f6e146d62259284595352405d517636, type: 3}
      propertyPath: m_LocalRotation.y
      value: -0.7071068
      objectReference: {fileID: 0}
    - target: {fileID: 8998670272088347476, guid: 5f6e146d62259284595352405d517636, type: 3}
      propertyPath: m_LocalRotation.z
      value: -0.7071068
      objectReference: {fileID: 0}
    - target: {fileID: 8998670272088347476, guid: 5f6e146d62259284595352405d517636, type: 3}
      propertyPath: m_LocalRotation.w
      value: 0.00000024734422
      objectReference: {fileID: 0}
    - target: {fileID: 8998670272088347476, guid: 5f6e146d62259284595352405d517636, type: 3}
      propertyPath: m_LocalPosition.x
      value: -0.2699995
      objectReference: {fileID: 0}
    - target: {fileID: 8998670272088347476, guid: 5f6e146d62259284595352405d517636, type: 3}
      propertyPath: m_LocalPosition.y
      value: 1.4499997
      objectReference: {fileID: 0}
    - target: {fileID: 8998670272088347476, guid: 5f6e146d62259284595352405d517636, type: 3}
      propertyPath: m_LocalPosition.z
      value: -7.7699995
      objectReference: {fileID: 0}
    - target: {fileID: 8998670272088347476, guid: 5f6e146d62259284595352405d517636, type: 3}
      propertyPath: m_LocalEulerAnglesHint.x
      value: -90
      objectReference: {fileID: 0}
    - target: {fileID: 8998670272088347476, guid: 5f6e146d62259284595352405d517636, type: 3}
      propertyPath: m_LocalEulerAnglesHint.y
      value: 0
      objectReference: {fileID: 0}
    - target: {fileID: 8998670272088347476, guid: 5f6e146d62259284595352405d517636, type: 3}
      propertyPath: m_LocalEulerAnglesHint.z
      value: -180
      objectReference: {fileID: 0}
    m_RemovedComponents:
    - {fileID: 4408288226093348332, guid: 5f6e146d62259284595352405d517636, type: 3}
    - {fileID: 5084672590720824023, guid: 5f6e146d62259284595352405d517636, type: 3}
    - {fileID: 8035255060013210412, guid: 5f6e146d62259284595352405d517636, type: 3}
  m_SourcePrefab: {fileID: 100100000, guid: 5f6e146d62259284595352405d517636, type: 3}
--- !u!1 &5688952623994071755 stripped
GameObject:
  m_CorrespondingSourceObject: {fileID: 885472276371468281, guid: 5f6e146d62259284595352405d517636, type: 3}
  m_PrefabInstance: {fileID: 4808415162050708786}
  m_PrefabAsset: {fileID: 0}
--- !u!4 &5024021474768400497 stripped
Transform:
  m_CorrespondingSourceObject: {fileID: 504971556672484675, guid: 5f6e146d62259284595352405d517636, type: 3}
  m_PrefabInstance: {fileID: 4808415162050708786}
  m_PrefabAsset: {fileID: 0}
--- !u!1001 &7782078575858563680
PrefabInstance:
  m_ObjectHideFlags: 0
  serializedVersion: 2
  m_Modification:
    m_TransformParent: {fileID: 5024021474768400497}
    m_Modifications:
    - target: {fileID: -8679921383154817045, guid: 429443af926031e44ba2820987d236d3, type: 3}
      propertyPath: m_LocalPosition.x
      value: 2.0154796
      objectReference: {fileID: 0}
    - target: {fileID: -8679921383154817045, guid: 429443af926031e44ba2820987d236d3, type: 3}
      propertyPath: m_LocalPosition.y
      value: 1.1235436
      objectReference: {fileID: 0}
    - target: {fileID: -8679921383154817045, guid: 429443af926031e44ba2820987d236d3, type: 3}
      propertyPath: m_LocalPosition.z
      value: 1.3705822
      objectReference: {fileID: 0}
    - target: {fileID: -8679921383154817045, guid: 429443af926031e44ba2820987d236d3, type: 3}
      propertyPath: m_LocalRotation.x
      value: 0.08787424
      objectReference: {fileID: 0}
    - target: {fileID: -8679921383154817045, guid: 429443af926031e44ba2820987d236d3, type: 3}
      propertyPath: m_LocalRotation.y
      value: 0.7302043
      objectReference: {fileID: 0}
    - target: {fileID: -8679921383154817045, guid: 429443af926031e44ba2820987d236d3, type: 3}
      propertyPath: m_LocalRotation.z
      value: -0.67076737
      objectReference: {fileID: 0}
    - target: {fileID: -8679921383154817045, guid: 429443af926031e44ba2820987d236d3, type: 3}
      propertyPath: m_LocalRotation.w
      value: 0.09566119
      objectReference: {fileID: 0}
    - target: {fileID: -8679921383154817045, guid: 429443af926031e44ba2820987d236d3, type: 3}
      propertyPath: m_RootOrder
      value: 9
      objectReference: {fileID: 0}
    - target: {fileID: -8679921383154817045, guid: 429443af926031e44ba2820987d236d3, type: 3}
      propertyPath: m_LocalEulerAnglesHint.x
      value: -265.141
      objectReference: {fileID: 0}
    - target: {fileID: -8679921383154817045, guid: 429443af926031e44ba2820987d236d3, type: 3}
      propertyPath: m_LocalEulerAnglesHint.y
      value: -14.9279785
      objectReference: {fileID: 0}
    - target: {fileID: -8679921383154817045, guid: 429443af926031e44ba2820987d236d3, type: 3}
      propertyPath: m_LocalEulerAnglesHint.z
      value: 180
      objectReference: {fileID: 0}
    - target: {fileID: -8679921383154817045, guid: 429443af926031e44ba2820987d236d3, type: 3}
      propertyPath: m_LocalScale.x
      value: 1.4580742
      objectReference: {fileID: 0}
    - target: {fileID: -8679921383154817045, guid: 429443af926031e44ba2820987d236d3, type: 3}
      propertyPath: m_LocalScale.y
      value: 1.2948
      objectReference: {fileID: 0}
    - target: {fileID: -8679921383154817045, guid: 429443af926031e44ba2820987d236d3, type: 3}
      propertyPath: m_LocalScale.z
      value: 1.8911849
      objectReference: {fileID: 0}
    - target: {fileID: 919132149155446097, guid: 429443af926031e44ba2820987d236d3, type: 3}
      propertyPath: m_Name
      value: BandageArm
      objectReference: {fileID: 0}
    - target: {fileID: 919132149155446097, guid: 429443af926031e44ba2820987d236d3, type: 3}
      propertyPath: m_IsActive
      value: 0
      objectReference: {fileID: 0}
    m_RemovedComponents: []
  m_SourcePrefab: {fileID: 100100000, guid: 429443af926031e44ba2820987d236d3, type: 3}
