%YAML 1.1
%TAG !u! tag:unity3d.com,2011:
--- !u!114 &-7089757308646879465
MonoBehaviour:
  m_ObjectHideFlags: 3
  m_CorrespondingSourceObject: {fileID: 0}
  m_PrefabInstance: {fileID: 0}
  m_PrefabAsset: {fileID: 0}
  m_GameObject: {fileID: 0}
  m_Enabled: 1
  m_EditorHideFlags: 0
  m_Script: {fileID: 11500000, guid: bcf384b154398e341b6b29969c078198, type: 3}
  m_Name: MotionBlur
  m_EditorClassIdentifier: 
  active: 0
  m_AdvancedMode: 0
  quality:
    m_OverrideState: 1
    m_Value: 1
  intensity:
    m_OverrideState: 1
    m_Value: 0.5
    min: 0
  maximumVelocity:
    m_OverrideState: 0
    m_Value: 200
    min: 0
    max: 1500
  minimumVelocity:
    m_OverrideState: 0
    m_Value: 2
    min: 0
    max: 64
  cameraRotationVelocityClamp:
    m_OverrideState: 0
    m_Value: 0.03
    min: 0
    max: 0.2
  depthComparisonExtent:
    m_OverrideState: 0
    m_Value: 1
    min: 0
    max: 20
  cameraMotionBlur:
    m_OverrideState: 0
    m_Value: 1
  m_SampleCount:
    m_OverrideState: 0
    m_Value: 8
    min: 2
--- !u!114 &-1016694868962581565
MonoBehaviour:
  m_ObjectHideFlags: 3
  m_CorrespondingSourceObject: {fileID: 0}
  m_PrefabInstance: {fileID: 0}
  m_PrefabAsset: {fileID: 0}
  m_GameObject: {fileID: 0}
  m_Enabled: 1
  m_EditorHideFlags: 0
  m_Script: {fileID: 11500000, guid: 56b145d2b9ee1ac4f846968484e7485a, type: 3}
  m_Name: ContactShadows
  m_EditorClassIdentifier: 
  active: 1
  m_AdvancedMode: 0
  quality:
    m_OverrideState: 0
    m_Value: 1
  enable:
    m_OverrideState: 1
    m_Value: 1
  length:
    m_OverrideState: 0
    m_Value: 0.15
    min: 0
    max: 1
  opacity:
    m_OverrideState: 0
    m_Value: 1
    min: 0
    max: 1
  distanceScaleFactor:
    m_OverrideState: 0
    m_Value: 0.5
    min: 0
    max: 1
  maxDistance:
    m_OverrideState: 0
    m_Value: 50
    min: 0
  minDistance:
    m_OverrideState: 0
    m_Value: 0
    min: 0
  fadeDistance:
    m_OverrideState: 0
    m_Value: 5
    min: 0
  fadeInDistance:
    m_OverrideState: 0
    m_Value: 0
    min: 0
  m_SampleCount:
    m_OverrideState: 1
    m_Value: 12
    min: 4
    max: 64
--- !u!114 &11400000
MonoBehaviour:
  m_ObjectHideFlags: 0
  m_CorrespondingSourceObject: {fileID: 0}
  m_PrefabInstance: {fileID: 0}
  m_PrefabAsset: {fileID: 0}
  m_GameObject: {fileID: 0}
  m_Enabled: 1
  m_EditorHideFlags: 0
  m_Script: {fileID: 11500000, guid: d7fd9488000d3734a9e00ee676215985, type: 3}
  m_Name: HDRPDefaultSettings
  m_EditorClassIdentifier: 
  components:
  - {fileID: 7686318427622180703}
  - {fileID: -1016694868962581565}
  - {fileID: 7542669330009093999}
  - {fileID: -7089757308646879465}
--- !u!114 &7542669330009093999
MonoBehaviour:
  m_ObjectHideFlags: 3
  m_CorrespondingSourceObject: {fileID: 0}
  m_PrefabInstance: {fileID: 0}
  m_PrefabAsset: {fileID: 0}
  m_GameObject: {fileID: 0}
  m_Enabled: 1
  m_EditorHideFlags: 0
  m_Script: {fileID: 11500000, guid: f086a068d4c5889438831b3ae9afc11c, type: 3}
  m_Name: Tonemapping
  m_EditorClassIdentifier: 
  active: 1
  m_AdvancedMode: 0
  mode:
    m_OverrideState: 1
    m_Value: 2
  toeStrength:
    m_OverrideState: 0
    m_Value: 0
    min: 0
    max: 1
  toeLength:
    m_OverrideState: 0
    m_Value: 0.5
    min: 0
    max: 1
  shoulderStrength:
    m_OverrideState: 0
    m_Value: 0
    min: 0
    max: 1
  shoulderLength:
    m_OverrideState: 0
    m_Value: 0.5
    min: 0
  shoulderAngle:
    m_OverrideState: 0
    m_Value: 0
    min: 0
    max: 1
  gamma:
    m_OverrideState: 0
    m_Value: 1
    min: 0.001
  lutTexture:
    m_OverrideState: 0
    m_Value: {fileID: 0}
  lutContribution:
    m_OverrideState: 0
    m_Value: 1
    min: 0
    max: 1
--- !u!114 &7686318427622180703
MonoBehaviour:
  m_ObjectHideFlags: 3
  m_CorrespondingSourceObject: {fileID: 0}
  m_PrefabInstance: {fileID: 0}
  m_PrefabAsset: {fileID: 0}
  m_GameObject: {fileID: 0}
  m_Enabled: 1
  m_EditorHideFlags: 0
  m_Script: {fileID: 11500000, guid: 7ddcec8a8eb2d684d833ac8f5d26aebd, type: 3}
  m_Name: HDShadowSettings
  m_EditorClassIdentifier: 
  active: 1
  m_AdvancedMode: 0
  maxShadowDistance:
    m_OverrideState: 1
    m_Value: 200
    min: 0
  directionalTransmissionMultiplier:
    m_OverrideState: 0
    m_Value: 1
    min: 0
    max: 1
  cascadeShadowSplitCount:
    m_OverrideState: 1
    m_Value: 2
    min: 1
    max: 4
  cascadeShadowSplit0:
    m_OverrideState: 1
    m_Value: 0.094179735
  cascadeShadowSplit1:
    m_OverrideState: 1
    m_Value: 0.5036
  cascadeShadowSplit2:
    m_OverrideState: 1
    m_Value: 0.15190329
  cascadeShadowBorder0:
    m_OverrideState: 0
    m_Value: 0
  cascadeShadowBorder1:
    m_OverrideState: 0
    m_Value: 0
  cascadeShadowBorder2:
    m_OverrideState: 0
    m_Value: 0.9717103
  cascadeShadowBorder3:
    m_OverrideState: 0
    m_Value: 0
