%YAML 1.1
%TAG !u! tag:unity3d.com,2011:
--- !u!1001 &3792191611782976370
PrefabInstance:
  m_ObjectHideFlags: 0
  serializedVersion: 2
  m_Modification:
    m_TransformParent: {fileID: 0}
    m_Modifications:
    - target: {fileID: -8679921383154817045, guid: 28ea99ab174218b418b9db4b80edfcac, type: 3}
      propertyPath: m_LocalPosition.x
      value: -0.66
      objectReference: {fileID: 0}
    - target: {fileID: -8679921383154817045, guid: 28ea99ab174218b418b9db4b80edfcac, type: 3}
      propertyPath: m_LocalPosition.y
      value: 1.65
      objectReference: {fileID: 0}
    - target: {fileID: -8679921383154817045, guid: 28ea99ab174218b418b9db4b80edfcac, type: 3}
      propertyPath: m_LocalPosition.z
      value: 1.82
      objectReference: {fileID: 0}
    - target: {fileID: -8679921383154817045, guid: 28ea99ab174218b418b9db4b80edfcac, type: 3}
      propertyPath: m_LocalRotation.x
      value: 0
      objectReference: {fileID: 0}
    - target: {fileID: -8679921383154817045, guid: 28ea99ab174218b418b9db4b80edfcac, type: 3}
      propertyPath: m_LocalRotation.y
      value: 0
      objectReference: {fileID: 0}
    - target: {fileID: -8679921383154817045, guid: 28ea99ab174218b418b9db4b80edfcac, type: 3}
      propertyPath: m_LocalRotation.z
      value: 0
      objectReference: {fileID: 0}
    - target: {fileID: -8679921383154817045, guid: 28ea99ab174218b418b9db4b80edfcac, type: 3}
      propertyPath: m_LocalRotation.w
      value: 1
      objectReference: {fileID: 0}
    - target: {fileID: -8679921383154817045, guid: 28ea99ab174218b418b9db4b80edfcac, type: 3}
      propertyPath: m_RootOrder
      value: 0
      objectReference: {fileID: 0}
    - target: {fileID: -8679921383154817045, guid: 28ea99ab174218b418b9db4b80edfcac, type: 3}
      propertyPath: m_LocalEulerAnglesHint.x
      value: 0
      objectReference: {fileID: 0}
    - target: {fileID: -8679921383154817045, guid: 28ea99ab174218b418b9db4b80edfcac, type: 3}
      propertyPath: m_LocalEulerAnglesHint.y
      value: 0
      objectReference: {fileID: 0}
    - target: {fileID: -8679921383154817045, guid: 28ea99ab174218b418b9db4b80edfcac, type: 3}
      propertyPath: m_LocalEulerAnglesHint.z
      value: 0
      objectReference: {fileID: 0}
    - target: {fileID: -8679921383154817045, guid: 28ea99ab174218b418b9db4b80edfcac, type: 3}
      propertyPath: m_LocalScale.x
      value: 0.91172
      objectReference: {fileID: 0}
    - target: {fileID: -8679921383154817045, guid: 28ea99ab174218b418b9db4b80edfcac, type: 3}
      propertyPath: m_LocalScale.y
      value: 0.91172
      objectReference: {fileID: 0}
    - target: {fileID: -8679921383154817045, guid: 28ea99ab174218b418b9db4b80edfcac, type: 3}
      propertyPath: m_LocalScale.z
      value: 0.91172
      objectReference: {fileID: 0}
    - target: {fileID: -7985051803217222022, guid: 28ea99ab174218b418b9db4b80edfcac, type: 3}
      propertyPath: m_Materials.Array.data[0]
      value: 
      objectReference: {fileID: 2100000, guid: 76389734c747ec84c8c0747fa62c2b3a, type: 2}
    - target: {fileID: -5142456346188676444, guid: 28ea99ab174218b418b9db4b80edfcac, type: 3}
      propertyPath: m_IsActive
      value: 0
      objectReference: {fileID: 0}
    - target: {fileID: -4683669308469848369, guid: 28ea99ab174218b418b9db4b80edfcac, type: 3}
      propertyPath: m_Materials.Array.data[0]
      value: 
      objectReference: {fileID: 2100000, guid: 991be43354929464eab87368fa7841e3, type: 2}
    - target: {fileID: -1672065181764657551, guid: 28ea99ab174218b418b9db4b80edfcac, type: 3}
      propertyPath: m_Materials.Array.data[0]
      value: 
      objectReference: {fileID: 2100000, guid: 76389734c747ec84c8c0747fa62c2b3a, type: 2}
    - target: {fileID: -1388618117224238325, guid: 28ea99ab174218b418b9db4b80edfcac, type: 3}
      propertyPath: m_Materials.Array.data[0]
      value: 
      objectReference: {fileID: 2100000, guid: 76389734c747ec84c8c0747fa62c2b3a, type: 2}
    - target: {fileID: -516098083770646512, guid: 28ea99ab174218b418b9db4b80edfcac, type: 3}
      propertyPath: m_IsActive
      value: 0
      objectReference: {fileID: 0}
    - target: {fileID: 919132149155446097, guid: 28ea99ab174218b418b9db4b80edfcac, type: 3}
      propertyPath: m_Name
      value: low_poly_tree
      objectReference: {fileID: 0}
    - target: {fileID: 2964021052020147848, guid: 28ea99ab174218b418b9db4b80edfcac, type: 3}
      propertyPath: m_Materials.Array.data[0]
      value: 
      objectReference: {fileID: 2100000, guid: 76389734c747ec84c8c0747fa62c2b3a, type: 2}
    m_RemovedComponents: []
  m_SourcePrefab: {fileID: 100100000, guid: 28ea99ab174218b418b9db4b80edfcac, type: 3}
